/home/skywalker/git/websocket-example-with-images/src/main/java/com/testwebsocket/websocket/config/WebSocketConfig.java
/home/skywalker/git/websocket-example-with-images/src/main/java/com/testwebsocket/websocket/models/InputMessage.java
/home/skywalker/git/websocket-example-with-images/src/main/java/com/testwebsocket/websocket/WebsocketApplication.java
/home/skywalker/git/websocket-example-with-images/src/main/java/com/testwebsocket/websocket/controller/MessageController.java
/home/skywalker/git/websocket-example-with-images/src/main/java/com/testwebsocket/websocket/models/OutputMessage.java
